<?xml version="1.0" encoding="UTF-8" standalone="no"?>
<svg
   xmlns:dc="http://purl.org/dc/elements/1.1/"
   xmlns:cc="http://creativecommons.org/ns#"
   xmlns:rdf="http://www.w3.org/1999/02/22-rdf-syntax-ns#"
   xmlns:svg="http://www.w3.org/2000/svg"
   xmlns="http://www.w3.org/2000/svg"
   xmlns:xlink="http://www.w3.org/1999/xlink"
   width="8.4667969mm"
   height="11.642057mm"
   viewBox="0 0 8.4667969 11.642057"
   version="1.1"
   id="svg8">
  <defs
     id="defs2">
    <linearGradient
       id="linearGradient921">
      <stop
         style="stop-color:#0a3294;stop-opacity:1"
         offset="0"
         id="stop917" />
      <stop
         style="stop-color:#de0000;stop-opacity:1"
         offset="1"
         id="stop919" />
    </linearGradient>
    <linearGradient
       id="linearGradient885">
      <stop
         style="stop-color:#0a3294;stop-opacity:1"
         offset="0"
         id="stop881" />
      <stop
         style="stop-color:#cb5f5f;stop-opacity:1"
         offset="1"
         id="stop883" />
    </linearGradient>
    <linearGradient
       id="linearGradient1211">
      <stop
         style="stop-color:#6ba800;stop-opacity:1"
         offset="0"
         id="stop1207" />
      <stop
         style="stop-color:#fdb900;stop-opacity:1"
         offset="1"
         id="stop1209" />
    </linearGradient>
    <mask
       maskUnits="userSpaceOnUse"
       id="mask-powermask-path-effect1172">
      <path
         id="mask-powermask-path-effect1172_box"
         style="fill:#ffffff;fill-opacity:1"
         d="M -1.0000005,-1.0000005 H 9.4666669 V 9.4666669 H -1.0000005 Z" />
      <g
         id="g1170">
        <path
           id="path1160"
           style="fill:#000000;fill-opacity:1;fill-rule:evenodd;stroke:none;stroke-width:2.11667;stroke-linecap:round;stroke-linejoin:round;stroke-miterlimit:4;stroke-dasharray:none;stroke-dashoffset:0;stroke-opacity:1;paint-order:normal"
           d="M 2.1166666,6.8791666 A 0.52916664,0.52916664 0 0 1 1.5875,7.4083332 0.52916664,0.52916664 0 0 1 1.0583333,6.8791666 0.52916664,0.52916664 0 0 1 1.5875,6.35 0.52916664,0.52916664 0 0 1 2.1166666,6.8791666 Z" />
        <path
           id="path1162"
           style="fill:#000000;fill-opacity:1;fill-rule:evenodd;stroke:none;stroke-width:2.11667;stroke-linecap:round;stroke-linejoin:round;stroke-miterlimit:4;stroke-dasharray:none;stroke-dashoffset:0;stroke-opacity:1;paint-order:normal"
           d="M 7.4083332,6.8791666 A 0.52916664,0.52916664 0 0 1 6.8791666,7.4083332 0.52916664,0.52916664 0 0 1 6.35,6.8791666 0.52916664,0.52916664 0 0 1 6.8791666,6.35 0.52916664,0.52916664 0 0 1 7.4083332,6.8791666 Z" />
        <g
           id="g1168"
           style="opacity:1">
          <path
             style="color:#000000;font-style:normal;font-variant:normal;font-weight:normal;font-stretch:normal;font-size:medium;line-height:normal;font-family:sans-serif;font-variant-ligatures:normal;font-variant-position:normal;font-variant-caps:normal;font-variant-numeric:normal;font-variant-alternates:normal;font-variant-east-asian:normal;font-feature-settings:normal;font-variation-settings:normal;text-indent:0;text-align:start;text-decoration:none;text-decoration-line:none;text-decoration-style:solid;text-decoration-color:#000000;letter-spacing:normal;word-spacing:normal;text-transform:none;writing-mode:lr-tb;direction:ltr;text-orientation:mixed;dominant-baseline:auto;baseline-shift:baseline;text-anchor:start;white-space:normal;shape-padding:0;shape-margin:0;inline-size:0;clip-rule:nonzero;display:inline;overflow:visible;visibility:visible;isolation:auto;mix-blend-mode:normal;color-interpolation:sRGB;color-interpolation-filters:linearRGB;solid-color:#000000;solid-opacity:1;vector-effect:none;fill:#000000;fill-opacity:1;fill-rule:evenodd;stroke:none;stroke-width:1.05833;stroke-linecap:round;stroke-linejoin:round;stroke-miterlimit:4;stroke-dasharray:none;stroke-dashoffset:0;stroke-opacity:1;paint-order:normal;color-rendering:auto;image-rendering:auto;shape-rendering:auto;text-rendering:auto;enable-background:accumulate;stop-color:#000000;stop-opacity:1"
             d="M 1.5875,1.5875 H 6.8791665 V 4.7624999 H 1.5875 Z"
             id="path1164" />
          <path
             style="color:#000000;font-style:normal;font-variant:normal;font-weight:normal;font-stretch:normal;font-size:medium;line-height:normal;font-family:sans-serif;font-variant-ligatures:normal;font-variant-position:normal;font-variant-caps:normal;font-variant-numeric:normal;font-variant-alternates:normal;font-variant-east-asian:normal;font-feature-settings:normal;font-variation-settings:normal;text-indent:0;text-align:start;text-decoration:none;text-decoration-line:none;text-decoration-style:solid;text-decoration-color:#000000;letter-spacing:normal;word-spacing:normal;text-transform:none;writing-mode:lr-tb;direction:ltr;text-orientation:mixed;dominant-baseline:auto;baseline-shift:baseline;text-anchor:start;white-space:normal;shape-padding:0;shape-margin:0;inline-size:0;clip-rule:nonzero;display:inline;overflow:visible;visibility:visible;isolation:auto;mix-blend-mode:normal;color-interpolation:sRGB;color-interpolation-filters:linearRGB;solid-color:#000000;solid-opacity:1;vector-effect:none;fill:#000000;fill-opacity:1;fill-rule:evenodd;stroke:none;stroke-linecap:round;stroke-linejoin:round;stroke-miterlimit:4;stroke-dasharray:none;stroke-dashoffset:0;stroke-opacity:1;paint-order:normal;color-rendering:auto;image-rendering:auto;shape-rendering:auto;text-rendering:auto;enable-background:accumulate;stop-color:#000000;stop-opacity:1"
             d="M 1.5878906,1.0585938 A 0.52921795,0.52921795 0 0 0 1.0585938,1.5878906 V 4.7617188 A 0.52921795,0.52921795 0 0 0 1.5878906,5.2910156 H 6.8789062 A 0.52921795,0.52921795 0 0 0 7.4082031,4.7617188 V 1.5878906 A 0.52921795,0.52921795 0 0 0 6.8789062,1.0585938 Z M 2.1171875,2.1171875 H 6.3496094 V 4.2324219 H 2.1171875 Z"
             id="path1166" />
        </g>
      </g>
    </mask>
    <filter
       id="mask-powermask-path-effect1172_inverse"
       style="color-interpolation-filters:sRGB"
       height="100"
       width="100"
       x="-50"
       y="-50">
      <feColorMatrix
         id="mask-powermask-path-effect1172_primitive1"
         values="1"
         type="saturate"
         result="fbSourceGraphic" />
      <feColorMatrix
         id="mask-powermask-path-effect1172_primitive2"
         values="-1 0 0 0 1 0 -1 0 0 1 0 0 -1 0 1 0 0 0 1 0 "
         in="fbSourceGraphic" />
    </filter>
    <linearGradient
       xlink:href="#linearGradient1211"
       id="linearGradient1213"
       x1="-1.1059846e-08"
       y1="4.7626953"
       x2="8.4667969"
       y2="4.7626953"
       gradientUnits="userSpaceOnUse" />
    <mask
       maskUnits="userSpaceOnUse"
       id="mask-powermask-path-effect1172-4">
      <path
         id="mask-powermask-path-effect1172_box-8"
         style="fill:#ffffff;fill-opacity:1"
         d="M -1.0000005,-1.0000005 H 9.4666669 V 9.4666669 H -1.0000005 Z" />
      <g
         id="g1170-3">
        <path
           id="path1160-1"
           style="fill:#000000;fill-opacity:1;fill-rule:evenodd;stroke:none;stroke-width:2.11667;stroke-linecap:round;stroke-linejoin:round;stroke-miterlimit:4;stroke-dasharray:none;stroke-dashoffset:0;stroke-opacity:1;paint-order:normal"
           d="M 2.1166666,6.8791666 A 0.52916664,0.52916664 0 0 1 1.5875,7.4083332 0.52916664,0.52916664 0 0 1 1.0583333,6.8791666 0.52916664,0.52916664 0 0 1 1.5875,6.35 0.52916664,0.52916664 0 0 1 2.1166666,6.8791666 Z" />
        <path
           id="path1162-4"
           style="fill:#000000;fill-opacity:1;fill-rule:evenodd;stroke:none;stroke-width:2.11667;stroke-linecap:round;stroke-linejoin:round;stroke-miterlimit:4;stroke-dasharray:none;stroke-dashoffset:0;stroke-opacity:1;paint-order:normal"
           d="M 7.4083332,6.8791666 A 0.52916664,0.52916664 0 0 1 6.8791666,7.4083332 0.52916664,0.52916664 0 0 1 6.35,6.8791666 0.52916664,0.52916664 0 0 1 6.8791666,6.35 0.52916664,0.52916664 0 0 1 7.4083332,6.8791666 Z" />
        <g
           id="g1168-9"
           style="opacity:1">
          <path
             style="color:#000000;font-style:normal;font-variant:normal;font-weight:normal;font-stretch:normal;font-size:medium;line-height:normal;font-family:sans-serif;font-variant-ligatures:normal;font-variant-position:normal;font-variant-caps:normal;font-variant-numeric:normal;font-variant-alternates:normal;font-variant-east-asian:normal;font-feature-settings:normal;font-variation-settings:normal;text-indent:0;text-align:start;text-decoration:none;text-decoration-line:none;text-decoration-style:solid;text-decoration-color:#000000;letter-spacing:normal;word-spacing:normal;text-transform:none;writing-mode:lr-tb;direction:ltr;text-orientation:mixed;dominant-baseline:auto;baseline-shift:baseline;text-anchor:start;white-space:normal;shape-padding:0;shape-margin:0;inline-size:0;clip-rule:nonzero;display:inline;overflow:visible;visibility:visible;isolation:auto;mix-blend-mode:normal;color-interpolation:sRGB;color-interpolation-filters:linearRGB;solid-color:#000000;solid-opacity:1;vector-effect:none;fill:#000000;fill-opacity:1;fill-rule:evenodd;stroke:none;stroke-width:1.05833;stroke-linecap:round;stroke-linejoin:round;stroke-miterlimit:4;stroke-dasharray:none;stroke-dashoffset:0;stroke-opacity:1;paint-order:normal;color-rendering:auto;image-rendering:auto;shape-rendering:auto;text-rendering:auto;enable-background:accumulate;stop-color:#000000;stop-opacity:1"
             d="M 1.5875,1.5875 H 6.8791665 V 4.7624999 H 1.5875 Z"
             id="path1164-7" />
          <path
             style="color:#000000;font-style:normal;font-variant:normal;font-weight:normal;font-stretch:normal;font-size:medium;line-height:normal;font-family:sans-serif;font-variant-ligatures:normal;font-variant-position:normal;font-variant-caps:normal;font-variant-numeric:normal;font-variant-alternates:normal;font-variant-east-asian:normal;font-feature-settings:normal;font-variation-settings:normal;text-indent:0;text-align:start;text-decoration:none;text-decoration-line:none;text-decoration-style:solid;text-decoration-color:#000000;letter-spacing:normal;word-spacing:normal;text-transform:none;writing-mode:lr-tb;direction:ltr;text-orientation:mixed;dominant-baseline:auto;baseline-shift:baseline;text-anchor:start;white-space:normal;shape-padding:0;shape-margin:0;inline-size:0;clip-rule:nonzero;display:inline;overflow:visible;visibility:visible;isolation:auto;mix-blend-mode:normal;color-interpolation:sRGB;color-interpolation-filters:linearRGB;solid-color:#000000;solid-opacity:1;vector-effect:none;fill:#000000;fill-opacity:1;fill-rule:evenodd;stroke:none;stroke-linecap:round;stroke-linejoin:round;stroke-miterlimit:4;stroke-dasharray:none;stroke-dashoffset:0;stroke-opacity:1;paint-order:normal;color-rendering:auto;image-rendering:auto;shape-rendering:auto;text-rendering:auto;enable-background:accumulate;stop-color:#000000;stop-opacity:1"
             d="M 1.5878906,1.0585938 A 0.52921795,0.52921795 0 0 0 1.0585938,1.5878906 V 4.7617188 A 0.52921795,0.52921795 0 0 0 1.5878906,5.2910156 H 6.8789062 A 0.52921795,0.52921795 0 0 0 7.4082031,4.7617188 V 1.5878906 A 0.52921795,0.52921795 0 0 0 6.8789062,1.0585938 Z M 2.1171875,2.1171875 H 6.3496094 V 4.2324219 H 2.1171875 Z"
             id="path1166-9" />
        </g>
      </g>
    </mask>
  </defs>
  <metadata
     id="metadata5">
    <rdf:RDF>
      <cc:Work
         rdf:about="">
        <dc:format>image/svg+xml</dc:format>
        <dc:type
           rdf:resource="http://purl.org/dc/dcmitype/StillImage" />
        <dc:title></dc:title>
      </cc:Work>
    </rdf:RDF>
  </metadata>
  <g
     id="rect885"
     style="fill:#ffae00;fill-opacity:1"
     transform="translate(1.1059846e-8,2.1166667)" />
  <g
     id="rect885-1"
     style="fill:#ffae00;fill-opacity:1"
     transform="translate(-9.5249986,2.1166654)" />
  <path
     id="path863-4-3"
     style="fill:#ffffff;fill-opacity:1;fill-rule:evenodd;stroke:none;stroke-width:0.707104;stroke-linecap:butt;stroke-linejoin:miter;stroke-miterlimit:4;stroke-dasharray:none;stroke-opacity:1"
     d="M 12 0 L 8 4 L 12 8 L 4.0019531 8 A 4.0004062 4.0004062 0 0 0 0 12.001953 L 0 36 A 4.0004062 4.0004062 0 0 0 4 40 L 2 44 L 6 44 L 8 40 L 24 40 L 26 44 L 30 44 L 28 40 A 4.0004062 4.0004062 0 0 0 32 36 L 32 12.001953 A 4.0004062 4.0004062 0 0 0 28 8 L 20 8 L 24 4 L 20 0 L 16 0 L 20 4 L 16 8 L 12 4 L 16 0 L 12 0 z M 5.953125 12.003906 A 2.0001938 2.0001938 0 0 1 6.0019531 12.003906 L 25.998047 12.003906 A 2.0001938 2.0001938 0 0 1 28 14.003906 L 28 25.998047 A 2.0001938 2.0001938 0 0 1 25.998047 28 L 6.0019531 28 A 2.0001938 2.0001938 0 0 1 4.0019531 25.998047 L 4.0019531 14.003906 A 2.0001938 2.0001938 0 0 1 5.953125 12.003906 z M 15.951172 32 A 1.9999999 1.9999999 0 0 1 16 32 A 1.9999999 1.9999999 0 0 1 18 34 A 1.9999999 1.9999999 0 0 1 16 36 A 1.9999999 1.9999999 0 0 1 14 34 A 1.9999999 1.9999999 0 0 1 15.951172 32 z "
     transform="scale(0.26458333)" />
</svg>
